(node:12184) Electron: Loading non-context-aware native module in renderer: '/tmp/.org.chromium.Chromium.XHqJVp'. This is deprecated, see https://github.com/electron/electron/issues/18397.
(Use `exe --trace-warnings ...` to show where the warning was created)
(node:12184) Electron: Loading non-context-aware native module in renderer: '/tmp/.org.chromium.Chromium.c2IcWU'. This is deprecated, see https://github.com/electron/electron/issues/18397.
(node:12184) Electron: Loading non-context-aware native module in renderer: '/tmp/.org.chromium.Chromium.uv4eUr'. This is deprecated, see https://github.com/electron/electron/issues/18397.
(node:12184) Electron: Loading non-context-aware native module in renderer: '/tmp/.org.chromium.Chromium.XtugcI'. This is deprecated, see https://github.com/electron/electron/issues/18397.
(node:12184) Electron: Loading non-context-aware native module in renderer: '/tmp/.org.chromium.Chromium.s8eQB2'. This is deprecated, see https://github.com/electron/electron/issues/18397.
/etc/zprofile:20: no such file or directory: /usr/local/bin/brew
(node:12184) Electron: Loading non-context-aware native module in renderer: '/tmp/.org.chromium.Chromium.OCL9zv'. This is deprecated, see https://github.com/electron/electron/issues/18397.
(node:12184) Electron: Loading non-context-aware native module in renderer: '/tmp/.org.chromium.Chromium.GMCuZU'. This is deprecated, see https://github.com/electron/electron/issues/18397.
(node:12184) Electron: Loading non-context-aware native module in renderer: '/tmp/.org.chromium.Chromium.INHajr'. This is deprecated, see https://github.com/electron/electron/issues/18397.
(node:12184) Electron: Loading non-context-aware native module in renderer: '/tmp/.org.chromium.Chromium.IqGZug'. This is deprecated, see https://github.com/electron/electron/issues/18397.
(node:12184) Electron: Loading non-context-aware native module in renderer: '/tmp/.org.chromium.Chromium.zDcseL'. This is deprecated, see https://github.com/electron/electron/issues/18397.
(node:12184) Electron: Loading non-context-aware native module in renderer: '/tmp/.org.chromium.Chromium.LNjDp0'. This is deprecated, see https://github.com/electron/electron/issues/18397.
(node:12184) Electron: Loading non-context-aware native module in renderer: '/tmp/.org.chromium.Chromium.zNZFXL'. This is deprecated, see https://github.com/electron/electron/issues/18397.
(node:12184) Electron: Loading non-context-aware native module in renderer: '/tmp/.org.chromium.Chromium.129Ghp'. This is deprecated, see https://github.com/electron/electron/issues/18397.
(node:12184) Electron: Loading non-context-aware native module in renderer: '/tmp/.org.chromium.Chromium.kfEGgN'. This is deprecated, see https://github.com/electron/electron/issues/18397.
(node:12184) Electron: Loading non-context-aware native module in renderer: '/tmp/.org.chromium.Chromium.VDcOIB'. This is deprecated, see https://github.com/electron/electron/issues/18397.
(node:12184) Electron: Loading non-context-aware native module in renderer: '/tmp/.org.chromium.Chromium.tH5vyv'. This is deprecated, see https://github.com/electron/electron/issues/18397.
(node:12184) Electron: Loading non-context-aware native module in renderer: '/tmp/.org.chromium.Chromium.Dqjmgj'. This is deprecated, see https://github.com/electron/electron/issues/18397.
(node:12184) Electron: Loading non-context-aware native module in renderer: '/tmp/.org.chromium.Chromium.YDEm9D'. This is deprecated, see https://github.com/electron/electron/issues/18397.
(node:12184) Electron: Loading non-context-aware native module in renderer: '/tmp/.org.chromium.Chromium.20nJl0'. This is deprecated, see https://github.com/electron/electron/issues/18397.
(node:12184) Electron: Loading non-context-aware native module in renderer: '/opt/Pulsar/resources/app.asar.unpacked/node_modules/tree-sitter-bash/build/Release/tree_sitter_bash_binding.node'. This is deprecated, see https://github.com/electron/electron/issues/18397.
(node:12184) Electron: Loading non-context-aware native module in renderer: '/tmp/.org.chromium.Chromium.GwJI7G'. This is deprecated, see https://github.com/electron/electron/issues/18397.
(node:12184) Electron: Loading non-context-aware native module in renderer: '/opt/Pulsar/resources/app.asar.unpacked/node_modules/spellchecker/build/Release/spellchecker.node'. This is deprecated, see https://github.com/electron/electron/issues/18397.
