{
    "schema_version": 2,
    "timestamp": 1672961325,
    "workspace": {
        "0": [
            [
                {
                    "panes": [
                        {
                            "type": "term",
                            "directory": "/home/kar18",
                            "custom_colors": {
                                "fg_color": null,
                                "bg_color": null,
                                "palette": null
                            }
                        }
                    ],
                    "label": "kar18@fedora:~",
                    "custom_label_set": false
                },
                {
                    "panes": [
                        {
                            "type": "term",
                            "directory": "/home/kar18/nvpn",
                            "custom_colors": {
                                "fg_color": null,
                                "bg_color": null,
                                "palette": null
                            }
                        }
                    ],
                    "label": "bluetoothctl",
                    "custom_label_set": false
                },
                {
                    "panes": [
                        {
                            "type": "term",
                            "directory": "/home/kar18",
                            "custom_colors": {
                                "fg_color": null,
                                "bg_color": null,
                                "palette": null
                            }
                        }
                    ],
                    "label": "kar18@fedora:~",
                    "custom_label_set": false
                }
            ]
        ]
    }
}